<?xml version="1.0" encoding="UTF-8"?>
<svg width="16px" height="21px" viewBox="0 0 16 21" version="1.1" xmlns="http://www.w3.org/2000/svg" xmlns:xlink="http://www.w3.org/1999/xlink">
    <!-- Generator: Sketch 47.1 (45422) - http://www.bohemiancoding.com/sketch -->
    <title>Fill 1</title>
    <desc>Created with Sketch.</desc>
    <defs></defs>
    <g id="Desktop" stroke="none" stroke-width="1" fill="none" fill-rule="evenodd">
        <g id="Service-Copy" transform="translate(-503.000000, -908.000000)" fill="#7F3F98">
            <g id="Resources" transform="translate(368.000000, 819.000000)">
                <g id="Question-Copy" transform="translate(112.000000, 69.000000)">
                    <g id="Page-1" transform="translate(23.000000, 20.000000)">
                        <path d="M9.4917668,6.39853333 L13.6840231,6.39853333 L9.4917668,2.25628333 L9.4917668,6.39853333 Z M10.0970182,17.2257833 L3.42145082,17.2257833 C3.21317312,17.2257833 3.03515799,17.1540333 2.88918558,17.0105333 C2.74321317,16.8670333 2.67022697,16.6937833 2.67022697,16.4890333 C2.67022697,16.2825333 2.74321317,16.1092833 2.88918558,15.9657833 C3.03515799,15.8222833 3.21317312,15.7505333 3.42145082,15.7505333 L10.0970182,15.7505333 C10.305296,15.7505333 10.4833111,15.8222833 10.6292835,15.9657833 C10.7752559,16.1092833 10.8482421,16.2825333 10.8482421,16.4890333 C10.8482421,16.6937833 10.7752559,16.8670333 10.6292835,17.0105333 C10.4833111,17.1540333 10.305296,17.2257833 10.0970182,17.2257833 L10.0970182,17.2257833 Z M12.7672452,13.9445333 L3.42145082,13.9445333 C3.21317312,13.9445333 3.03515799,13.8727833 2.88918558,13.7292833 C2.74321317,13.5857833 2.67022697,13.4125333 2.67022697,13.2077833 C2.67022697,13.0012833 2.74321317,12.8280333 2.88918558,12.6845333 C3.03515799,12.5410333 3.21317312,12.4692833 3.42145082,12.4692833 L12.7672452,12.4692833 C12.9755229,12.4692833 13.1535381,12.5410333 13.2995105,12.6845333 C13.4454829,12.8280333 13.5184691,13.0012833 13.5184691,13.2077833 C13.5184691,13.4125333 13.4454829,13.5857833 13.2995105,13.7292833 C13.1535381,13.8727833 12.9755229,13.9445333 12.7672452,13.9445333 L12.7672452,13.9445333 Z M8.76190476,10.6650333 L3.42145082,10.6650333 C3.21317312,10.6650333 3.03515799,10.5915333 2.88918558,10.4480333 C2.74321317,10.3045333 2.67022697,10.1312833 2.67022697,9.92653333 C2.67022697,9.72003333 2.74321317,9.54678333 2.88918558,9.40328333 C3.03515799,9.25978333 3.21317312,9.18803333 3.42145082,9.18803333 L8.76190476,9.18803333 C8.97018247,9.18803333 9.1481976,9.25978333 9.29417,9.40328333 C9.44014241,9.54678333 9.51312862,9.72003333 9.51312862,9.92653333 C9.51312862,10.1312833 9.44014241,10.3045333 9.29417,10.4480333 C9.1481976,10.5915333 8.97018247,10.6650333 8.76190476,10.6650333 L8.76190476,10.6650333 Z M14.4993324,7.87553333 L9.51312862,7.87553333 C9.09479306,7.87553333 8.73698264,7.73203333 8.43791722,7.44503333 C8.1388518,7.15803333 7.98931909,6.80803333 7.98931909,6.39853333 L7.98931909,1.47578333 L1.50244771,1.47578333 L1.50244771,19.5235333 L14.4993324,19.5235333 L14.4993324,7.87553333 Z M16,7.21928333 L16,19.5235333 C16,19.9330333 15.8575879,20.2830333 15.5727637,20.5700333 C15.2879395,20.8570333 14.9372497,21.0005333 14.5189141,21.0005333 L1.52202937,21.0005333 C1.10547397,21.0005333 0.747663551,20.8570333 0.448598131,20.5700333 C0.14953271,20.2830333 0,19.9330333 0,19.5235333 L0,1.47578333 C0,1.06628333 0.14953271,0.718033333 0.448598131,0.431033333 C0.747663551,0.144033333 1.10547397,0.000533333333 1.52202937,0.000533333333 L8.71918113,0.000533333333 C8.92923899,0.000533333333 9.13039608,0.0407833333 9.32443258,0.123033333 C9.352915,0.137033333 9.37427681,0.151033333 9.38673787,0.163283333 C9.40097908,0.163283333 9.4294615,0.177283333 9.47040498,0.205283333 C9.58255452,0.273533333 9.68580329,0.348783333 9.78371162,0.431033333 L15.5834446,6.19378333 C15.8611482,6.46678333 16,6.80803333 16,7.21928333 L16,7.21928333 Z" id="Fill-1"></path>
                    </g>
                </g>
            </g>
        </g>
    </g>
</svg>