<?xml version="1.0" encoding="UTF-8"?>
<svg width="150px" height="151px" viewBox="0 0 150 151" version="1.1" xmlns="http://www.w3.org/2000/svg" xmlns:xlink="http://www.w3.org/1999/xlink">
    <!-- Generator: Sketch 47.1 (45422) - http://www.bohemiancoding.com/sketch -->
    <title>Logo</title>
    <desc>Created with Sketch.</desc>
    <defs>
        <polygon id="path-1" points="0 75.000475 0 0.001 150 0.001 150 75.000475 150 149.99995 0 149.99995"></polygon>
    </defs>
    <g id="Symbols" stroke="none" stroke-width="1" fill="none" fill-rule="evenodd">
        <g id="Desktop/Layout/Header" transform="translate(-86.000000, -81.000000)">
            <g id="Header">
                <g id="Logo" transform="translate(86.000000, 81.000000)">
                    <g id="Group-3" transform="translate(0.000000, 0.499000)">
                        <mask id="mask-2" fill="white">
                            <use xlink:href="#path-1"></use>
                        </mask>
                        <g id="Clip-2"></g>
                        <path d="M150,75.00095 C150,116.42295 116.4215,149.99995 74.999,149.99995 C33.5785,149.99995 0,116.42295 0,75.00095 C0,33.57895 33.5785,0.00095 74.999,0.00095 C116.4215,0.00095 150,33.57895 150,75.00095" id="Fill-1" fill="#7F3F98" mask="url(#mask-2)"></path>
                    </g>
                    <path d="M41.48655,137.26265 C41.48655,138.41815 41.12605,139.37215 40.46905,140.07165 C39.78005,140.79215 38.82655,141.19465 37.74555,141.19465 C35.54105,141.19465 33.99355,139.60515 33.99355,137.09315 C33.99355,136.19265 34.19505,135.36565 34.58755,134.56065 L36.28305,134.56065 C35.76355,135.36565 35.50905,136.17115 35.50905,136.97715 C35.50905,138.43965 36.35705,139.32965 37.74555,139.32965 C39.08055,139.32965 39.97105,138.48165 39.97105,137.11465 C39.97105,136.24565 39.66355,135.36565 39.05955,134.49715 L40.75505,134.49715 C41.24255,135.35515 41.48655,136.25615 41.48655,137.26265" id="Fill-4" fill="#FFFFFF"></path>
                    <polygon id="Fill-6" fill="#FFFFFF" points="34.1206 133.4272 34.1206 131.6147 37.0246 131.6147 37.0246 128.3932 34.1206 128.3932 34.1206 126.5812 41.3596 126.5812 41.3596 128.3932 38.4236 128.3932 38.4236 131.6147 41.3596 131.6147 41.3596 133.4272"></polygon>
                    <path d="M38.7097,120.91105 L35.9547,121.92855 L38.7097,123.05205 L38.7097,120.91105 Z M34.1207,122.92455 L34.1207,120.83755 L41.3592,118.01805 L41.3592,119.93655 L39.9497,120.45555 L39.9497,123.57155 L41.3592,124.15405 L41.3592,126.08355 L34.1207,122.92455 Z" id="Fill-8" fill="#FFFFFF"></path>
                    <path d="M36.2405,113.80025 C35.7105,113.80025 35.4035,114.13975 35.4035,114.79625 L35.4035,115.66525 L37.0885,115.66525 L37.0885,114.79625 C37.0885,114.11825 36.813,113.80025 36.2405,113.80025 L36.2405,113.80025 Z M34.1205,117.47775 L34.1205,114.80725 C34.1205,112.86825 34.7675,111.92425 36.2195,111.92425 C37.014,111.92425 37.576,112.31675 37.968,113.18575 C38.1055,112.82575 38.413,112.53975 38.8795,112.32775 L41.3595,111.17225 L41.3595,113.21775 L39.2715,114.13975 C38.6255,114.42575 38.4025,114.74425 38.4025,115.45375 C38.4025,115.52775 38.413,115.59175 38.413,115.66525 L41.3595,115.66525 L41.3595,117.47775 L34.1205,117.47775 Z" id="Fill-10" fill="#FFFFFF"></path>
                    <polygon id="Fill-12" fill="#FFFFFF" points="35.46655 108.84125 35.46655 111.23575 34.12055 111.23575 34.12055 104.53825 35.46655 104.53825 35.46655 106.93375 41.35955 106.93375 41.35955 108.84125"></polygon>
                    <polygon id="Fill-14" fill="#FFFFFF" points="34.1206 103.7548 34.1206 98.9113 35.4566 98.9113 35.4566 101.9423 36.9296 101.9423 36.9296 99.0493 38.2756 99.0493 38.2756 101.9423 40.0031 101.9423 40.0031 98.8268 41.3596 98.8268 41.3596 103.7548"></polygon>
                    <path d="M36.2405,93.9521 C35.7105,93.9521 35.4035,94.2911 35.4035,94.9481 L35.4035,95.8171 L37.0885,95.8171 L37.0885,94.9481 C37.0885,94.2701 36.813,93.9521 36.2405,93.9521 L36.2405,93.9521 Z M34.1205,97.6291 L34.1205,94.9591 C34.1205,93.0196 34.7675,92.0761 36.2195,92.0761 C37.014,92.0761 37.576,92.4681 37.968,93.3376 C38.1055,92.9771 38.413,92.6911 38.8795,92.4791 L41.3595,91.3236 L41.3595,93.3691 L39.2715,94.2911 C38.6255,94.5771 38.4025,94.8956 38.4025,95.6051 C38.4025,95.6796 38.413,95.7431 38.413,95.8171 L41.3595,95.8171 L41.3595,97.6291 L34.1205,97.6291 Z" id="Fill-16" fill="#FFFFFF"></path>
                    <polygon id="Fill-18" fill="#FFFFFF" points="34.1206 90.7514 34.1206 85.9079 35.4566 85.9079 35.4566 88.9394 36.9296 88.9394 36.9296 86.0464 38.2756 86.0464 38.2756 88.9394 40.0031 88.9394 40.0031 85.8239 41.3596 85.8239 41.3596 90.7514"></polygon>
                    <path d="M39.89675,82.8569 L39.89675,81.5109 C39.89675,80.2704 38.99625,79.4229 37.73475,79.4229 C36.47375,79.4229 35.58375,80.2704 35.58375,81.5109 L35.58375,82.8569 L39.89675,82.8569 Z M34.12075,84.6689 L34.12075,81.9554 C34.12075,80.8009 34.19525,79.8679 34.87325,78.9674 C35.57325,78.0449 36.55825,77.5574 37.73475,77.5574 C39.02775,77.5574 40.10875,78.1509 40.80825,79.2529 C41.32775,80.0694 41.35925,80.9174 41.35925,81.9554 L41.35925,84.6689 L34.12075,84.6689 Z" id="Fill-20" fill="#FFFFFF"></path>
                    <path d="M39.17625,73.71135 C39.73775,72.79985 40.08725,72.05785 40.08725,71.24235 C40.08725,70.53185 39.86525,70.16085 39.44125,70.16085 C39.00675,70.16085 38.86875,70.48985 38.64625,71.12585 C38.01025,72.94835 37.40625,73.83885 36.09225,73.83885 C34.88425,73.83885 34.00425,72.76835 34.00425,71.10435 C34.00425,70.30935 34.19525,69.47185 34.59775,68.64585 L36.08175,68.64585 C35.61525,69.56735 35.36075,70.34135 35.36075,71.00885 C35.36075,71.70835 35.57275,72.06885 35.94375,72.06885 C36.24025,72.06885 36.50525,71.75085 36.74925,71.09385 C36.99275,70.44735 37.19425,69.83285 37.52275,69.29235 C37.91525,68.65635 38.52975,68.33785 39.33525,68.33785 C40.64925,68.33785 41.48675,69.37685 41.48675,71.19985 C41.48675,72.10035 41.25325,72.93785 40.78725,73.71135 L39.17625,73.71135 Z" id="Fill-22" fill="#FFFFFF"></path>
                    <path d="M38.26465,60.47505 C40.31015,60.47505 41.48665,61.75705 41.48665,63.89805 C41.48665,66.03905 40.31015,67.32155 38.26465,67.32155 L34.12065,67.32155 L34.12065,65.49855 L38.19065,65.49855 C39.35665,65.49855 39.97115,64.92605 39.97115,63.88755 C39.97115,62.84905 39.35665,62.28755 38.19065,62.28755 L34.12065,62.28755 L34.12065,60.47505 L38.26465,60.47505 Z" id="Fill-24" fill="#FFFFFF"></path>
                    <path d="M36.2405,55.3779 C35.7105,55.3779 35.4035,55.7169 35.4035,56.3739 L35.4035,57.2429 L37.0885,57.2429 L37.0885,56.3739 C37.0885,55.6959 36.813,55.3779 36.2405,55.3779 L36.2405,55.3779 Z M34.1205,59.0554 L34.1205,56.3849 C34.1205,54.4454 34.7675,53.5019 36.2195,53.5019 C37.014,53.5019 37.576,53.8944 37.968,54.7634 C38.1055,54.4029 38.413,54.1169 38.8795,53.9049 L41.3595,52.7494 L41.3595,54.7949 L39.2715,55.7169 C38.6255,56.0034 38.4025,56.3214 38.4025,57.0314 C38.4025,57.1054 38.413,57.1689 38.413,57.2429 L41.3595,57.2429 L41.3595,59.0554 L34.1205,59.0554 Z" id="Fill-26" fill="#FFFFFF"></path>
                    <polygon id="Fill-28" fill="#FFFFFF" points="34.1206 53.08905 34.1206 51.15005 38.3286 49.35855 34.1206 47.45105 34.1206 45.49005 41.4226 49.01955 41.4226 49.80355"></polygon>
                    <polygon id="Fill-30" fill="#FFFFFF" points="34.1206 44.99285 34.1206 40.14935 35.4566 40.14935 35.4566 43.18035 36.9296 43.18035 36.9296 40.28735 38.2756 40.28735 38.2756 43.18035 40.0031 43.18035 40.0031 40.06485 41.3596 40.06485 41.3596 44.99285"></polygon>
                    <polygon id="Fill-32" fill="#FFFFFF" points="38.08445 36.9919 34.12045 39.8429 34.12045 37.6699 36.46295 36.0804 34.12045 34.4484 34.12045 32.2969 38.07395 35.1794 41.35945 35.1794 41.35945 36.9919"></polygon>
                    <path d="M39.96045,28.238 C39.96045,27.0405 39.04895,26.1715 37.74545,26.1715 C36.44195,26.1715 35.51995,27.0405 35.51995,28.238 C35.51995,29.4355 36.44195,30.3045 37.74545,30.3045 C39.04895,30.3045 39.96045,29.4355 39.96045,28.238 M35.03245,31.036 C34.34345,30.3045 34.00445,29.383 34.00445,28.238 C34.00445,27.0935 34.34345,26.161 35.03245,25.4295 C35.74245,24.6875 36.66445,24.2955 37.74545,24.2955 C38.82645,24.2955 39.74845,24.6875 40.44795,25.4295 C41.13695,26.161 41.48645,27.0935 41.48645,28.238 C41.48645,29.383 41.13695,30.3045 40.44795,31.036 C39.74845,31.778 38.81595,32.17 37.74545,32.17 C36.66445,32.17 35.74245,31.778 35.03245,31.036" id="Fill-34" fill="#FFFFFF"></path>
                    <path d="M36.2405,19.5168 C35.7105,19.5168 35.4035,19.8558 35.4035,20.5133 L35.4035,21.3818 L37.0885,21.3818 L37.0885,20.5133 C37.0885,19.8348 36.813,19.5168 36.2405,19.5168 L36.2405,19.5168 Z M34.1205,23.1943 L34.1205,20.5233 C34.1205,18.5843 34.7675,17.6408 36.2195,17.6408 C37.014,17.6408 37.576,18.0333 37.968,18.9023 C38.1055,18.5418 38.413,18.2558 38.8795,18.0438 L41.3595,16.8883 L41.3595,18.9338 L39.2715,19.8558 C38.6255,20.1418 38.4025,20.4598 38.4025,21.1703 C38.4025,21.2443 38.413,21.3078 38.413,21.3818 L41.3595,21.3818 L41.3595,23.1943 L34.1205,23.1943 Z" id="Fill-36" fill="#FFFFFF"></path>
                    <path d="M39.17625,16.43305 C39.73775,15.52155 40.08725,14.77955 40.08725,13.96355 C40.08725,13.25355 39.86525,12.88255 39.44125,12.88255 C39.00675,12.88255 38.86875,13.21105 38.64625,13.84705 C38.01025,15.67005 37.40625,16.56005 36.09225,16.56005 C34.88425,16.56005 34.00425,15.48955 34.00425,13.82605 C34.00425,13.03105 34.19525,12.19355 34.59775,11.36705 L36.08175,11.36705 C35.61525,12.28905 35.36075,13.06305 35.36075,13.73055 C35.36075,14.43005 35.57275,14.79005 35.94375,14.79005 C36.24025,14.79005 36.50525,14.47255 36.74925,13.81555 C36.99275,13.16905 37.19425,12.55405 37.52275,12.01355 C37.91525,11.37805 38.52975,11.05955 39.33525,11.05955 C40.64925,11.05955 41.48675,12.09855 41.48675,13.92155 C41.48675,14.82205 41.25325,15.65955 40.78725,16.43305 L39.17625,16.43305 Z" id="Fill-38" fill="#FFFFFF"></path>
                    <path d="M56.9746,60.80925 C56.9746,60.95975 56.7661,61.03525 56.3476,61.03525 C55.5911,61.03525 55.1236,61.05975 54.9446,61.10975 C54.7656,61.15925 54.6611,61.24425 54.6311,61.36375 C54.6011,61.48325 54.5866,61.87175 54.5866,62.52925 L54.5866,72.12475 L54.5866,74.90425 C54.6061,76.27925 54.6061,77.40525 54.5866,78.28175 C54.5466,79.51725 54.4576,80.44425 54.3186,81.06175 C54.0806,82.09775 53.4956,82.98975 52.5646,83.73725 C51.6326,84.48425 50.6411,84.85775 49.5906,84.85775 C48.8176,84.85775 48.1931,84.65325 47.7171,84.24625 C47.2416,83.83775 47.0041,83.30575 47.0041,82.64825 C47.0041,81.51425 47.5611,80.94725 48.6756,80.94725 C49.1326,80.94725 49.5161,81.08625 49.8251,81.36525 C50.1331,81.64325 50.2876,82.00175 50.2876,82.43975 C50.2876,82.81775 50.1576,83.15625 49.8996,83.45525 C49.7201,83.67325 49.6311,83.84275 49.6311,83.96225 C49.6311,84.14175 49.7801,84.23075 50.0786,84.23075 C50.7151,84.23075 51.1631,83.84275 51.4221,83.06675 C51.5611,82.64825 51.6311,81.42475 51.6311,79.39475 L51.6311,62.34875 C51.6311,61.71225 51.4416,61.31375 51.0636,61.15425 C50.8846,61.09475 50.4071,61.06475 49.6311,61.06475 C49.2726,61.06475 49.0486,61.04525 48.9591,61.00525 C48.8696,60.96525 48.8246,60.90575 48.8246,60.82575 C48.8246,60.62725 48.9836,60.52725 49.3026,60.52725 L50.1086,60.52725 L51.6311,60.52725 L56.0191,60.52725 C56.6556,60.52725 56.9746,60.62175 56.9746,60.80925" id="Fill-40" fill="#FFFFFF"></path>
                    <path d="M72.34865,80.2602 C72.34865,80.3997 72.12965,80.4797 71.69215,80.4992 C70.13965,80.5992 68.77615,80.9372 67.60215,81.5142 C67.52265,81.5542 67.45265,81.5737 67.39315,81.5737 C67.27365,81.5737 67.21415,81.4947 67.21415,81.3347 L67.21415,79.6632 C66.30565,80.9372 65.03215,81.5737 63.39315,81.5737 C61.93215,81.5737 60.88615,81.1492 60.25415,80.2992 C59.99665,79.9437 59.84415,79.6177 59.79465,79.3212 C59.74515,79.0242 59.72115,78.2242 59.72115,76.9192 L59.72115,70.1307 C59.72115,69.4387 59.68115,69.0337 59.60115,68.9147 C59.52215,68.7967 59.25315,68.7272 58.79565,68.7072 L58.40765,68.7072 C57.87015,68.7477 57.60115,68.6677 57.60115,68.4687 C57.60115,68.3292 57.77015,68.2597 58.10915,68.2597 C58.46715,68.2597 58.98465,68.2857 59.66115,68.3392 C59.99915,68.3657 60.19865,68.3787 60.25865,68.3787 C60.95465,68.3787 61.60165,68.3392 62.19865,68.2597 L62.19865,76.5487 C62.19865,78.0742 62.29815,79.0842 62.49765,79.5797 C62.81565,80.3517 63.46215,80.7382 64.43765,80.7382 C65.49265,80.7382 66.26865,80.3022 66.76615,79.4302 C67.12415,78.7967 67.30365,77.7872 67.30365,76.3997 L67.30365,71.7952 C67.30365,71.1217 67.27365,70.6162 67.21415,70.2797 L67.21415,69.2992 C67.19415,69.0027 67.12915,68.8287 67.02015,68.7797 C66.91065,68.7297 66.68615,68.7052 66.34815,68.7052 C65.51215,68.7247 65.09465,68.6357 65.09465,68.4372 C65.09465,68.3192 65.30365,68.2597 65.72165,68.2597 L65.99015,68.2597 L67.57265,68.2597 L69.78165,68.2597 L69.78165,76.5882 C69.78165,78.0217 69.81065,78.9272 69.87015,79.3052 C69.92915,79.6837 70.08165,79.9022 70.32715,79.9617 C70.57315,80.0217 71.12915,80.0512 71.99465,80.0512 C72.23115,80.0512 72.34865,80.1217 72.34865,80.2602" id="Fill-42" fill="#FFFFFF"></path>
                    <path d="M78.8264,81.06635 C78.8264,81.24535 78.6974,81.33485 78.4384,81.33485 L78.0804,81.33485 C78.0399,81.33485 77.5129,81.31485 76.4979,81.27535 L75.5729,81.27535 C75.4129,81.27535 74.6174,81.29035 73.1844,81.32035 C73.0649,81.32985 72.9454,81.33485 72.8259,81.33485 C72.5274,81.35485 72.3784,81.27085 72.3784,81.08285 C72.3784,80.95285 72.4874,80.88735 72.7069,80.88735 L73.4829,80.88735 C74.0399,80.88735 74.3189,80.76785 74.3189,80.52935 C74.3379,80.41035 74.3484,79.63385 74.3484,78.20035 L74.3484,63.00535 C74.3484,62.34885 74.3284,61.99035 74.2889,61.93085 C74.2294,61.77185 74.0699,61.69135 73.8109,61.69135 L73.5729,61.69135 L72.7364,61.69135 C72.4579,61.69135 72.3184,61.60735 72.3184,61.43785 C72.3184,61.28785 72.5669,61.20285 73.0649,61.18435 C74.0204,61.12485 74.9054,60.90585 75.7224,60.52735 L76.3484,60.22885 L76.5874,60.13935 C76.7469,60.71685 76.8159,61.59235 76.7969,62.76635 L76.7969,64.88635 L76.7969,79.51435 C76.7969,80.11085 76.8064,80.46485 76.8264,80.57435 C76.8464,80.68335 76.9159,80.75835 77.0354,80.79785 C77.0554,80.81785 77.4234,80.83785 78.1399,80.85785 C78.5974,80.85785 78.8264,80.92785 78.8264,81.06635" id="Fill-44" fill="#FFFFFF"></path>
                    <path d="M84.0801,62.498 C84.0801,63.3935 83.6321,63.841 82.7366,63.841 C82.3586,63.841 82.0396,63.717 81.7811,63.468 C81.5226,63.219 81.3931,62.9155 81.3931,62.5575 C81.3931,61.6225 81.8406,61.154 82.7366,61.154 C83.6321,61.154 84.0801,61.602 84.0801,62.498 M86.3191,81.0965 C86.3191,81.2755 86.1501,81.365 85.8116,81.365 C85.8311,81.365 85.5921,81.345 85.0951,81.3055 C84.4981,81.2655 84.0001,81.2455 83.6021,81.2455 L80.4976,81.2455 C80.3981,81.3245 80.2781,81.365 80.1391,81.365 C79.9201,81.365 79.8111,81.2915 79.8111,81.144 C79.8111,80.933 80.0096,80.8275 80.4081,80.8275 C81.1641,80.808 81.5771,80.7535 81.6471,80.6635 C81.7166,80.574 81.7516,80.161 81.7516,79.4245 L81.7516,70.379 C81.7316,69.882 81.7071,69.588 81.6766,69.498 C81.6471,69.4085 81.5226,69.364 81.3036,69.364 L80.4381,69.364 L80.1391,69.364 C79.9201,69.364 79.8111,69.2945 79.8111,69.155 C79.8111,69.0335 79.9776,68.964 80.3116,68.946 C81.6271,68.8885 82.7566,68.578 83.6986,68.016 L83.9936,67.8415 C84.1506,68.1395 84.2291,68.6855 84.2291,69.48 L84.2291,69.7775 L84.2291,70.9395 L84.2291,79.0705 C84.2291,79.8645 84.2441,80.3315 84.2741,80.4705 C84.3041,80.6095 84.4086,80.6985 84.5881,80.7385 C84.8861,80.818 85.3236,80.858 85.9011,80.858 C86.1796,80.858 86.3191,80.937 86.3191,81.0965" id="Fill-46" fill="#FFFFFF"></path>
                    <path d="M94.1406,76.76775 L94.1406,74.58825 C92.6696,74.92675 91.6141,75.36975 90.9771,75.91675 C90.3391,76.46475 90.0206,77.19575 90.0206,78.11075 C90.0206,78.74775 90.2021,79.27025 90.5651,79.67825 C90.9276,80.08625 91.3836,80.29025 91.9331,80.29025 C92.7766,80.29025 93.4536,79.81225 93.9636,78.85775 C94.0811,78.63825 94.1406,77.94225 94.1406,76.76775 M99.3946,79.93225 C99.3946,80.27075 99.0426,80.62375 98.3396,80.99175 C97.6366,81.35975 96.9586,81.54425 96.3056,81.54425 C94.9391,81.54425 94.2261,80.83775 94.1671,79.42425 C93.4146,80.89775 92.2466,81.63375 90.6621,81.63375 C89.8106,81.63375 89.1081,81.37975 88.5531,80.87225 C87.9991,80.36525 87.7216,79.71325 87.7216,78.91725 C87.7216,77.28575 88.6976,75.99125 90.6506,75.03575 C91.3206,74.71775 92.4841,74.39925 94.1406,74.08075 L94.1406,73.33475 C94.1406,71.58325 94.0506,70.42875 93.8716,69.87175 C93.5531,68.85675 92.8366,68.34875 91.7221,68.34875 C91.0256,68.34875 90.4431,68.53825 89.9756,68.91625 C89.5076,69.29475 89.2746,69.77225 89.2746,70.34925 C89.2746,70.50875 89.3961,70.58775 89.6391,70.58775 C89.8816,70.58775 90.1006,70.70725 90.2961,70.94625 C90.4901,71.18525 90.5881,71.45375 90.5881,71.75225 C90.5881,72.62825 90.1541,73.06575 89.2876,73.06575 C88.8346,73.06575 88.4601,72.91225 88.1651,72.60325 C87.8691,72.29475 87.7216,71.90125 87.7216,71.42375 C87.7216,70.48825 88.0896,69.68275 88.8266,69.00575 C89.6426,68.26975 90.7766,67.90125 92.2301,67.90125 C94.4186,67.90125 95.7621,68.49825 96.2596,69.69225 C96.4391,70.15025 96.5286,71.05575 96.5286,72.40925 L96.5286,77.99175 C96.5286,78.90725 96.5386,79.44475 96.5581,79.60375 C96.6576,80.32025 96.9461,80.67825 97.4241,80.67825 C97.9811,80.67825 98.4396,80.47975 98.7971,80.08125 C98.9961,79.86225 99.1456,79.75275 99.2451,79.75275 C99.3441,79.75275 99.3946,79.81225 99.3946,79.93225" id="Fill-48" fill="#FFFFFF"></path>
                    <path d="M112.91795,81.11225 C112.91795,81.26125 112.76795,81.33475 112.46995,81.33475 L112.11195,81.33475 L110.64895,81.33475 L107.18545,81.33475 L106.97695,81.33475 C106.71845,81.33475 106.58895,81.26575 106.58895,81.12625 C106.58895,81.02775 106.64345,80.96825 106.75295,80.94825 C106.86245,80.92825 107.24495,80.90875 107.90245,80.88825 C108.28045,80.86875 108.49945,80.81425 108.55895,80.72475 C108.61895,80.63525 108.64845,80.31275 108.64845,79.75675 L108.64845,74.03825 C108.64845,71.87475 108.56895,70.58375 108.40945,70.16675 C108.07095,69.27325 107.39445,68.82675 106.37995,68.82675 C105.38445,68.82675 104.54845,69.26375 103.87195,70.13675 C103.67295,70.39525 103.57395,70.75275 103.57395,71.20925 L103.57395,80.50075 C103.57395,80.73925 103.78595,80.86875 104.21045,80.88825 L105.12145,80.91825 C105.32345,80.91825 105.42445,80.98725 105.42445,81.12625 C105.42445,81.26575 105.30495,81.33475 105.06645,81.33475 L104.58845,81.33475 L102.49895,81.33475 L101.08045,81.33475 L99.81195,81.33475 L99.63295,81.33475 C99.33445,81.33475 99.18495,81.27425 99.18495,81.15225 C99.18495,81.03025 99.36445,80.95275 99.72195,80.91725 L100.46945,80.91725 C100.76745,80.91725 100.94645,80.84775 101.00645,80.70875 L101.09545,80.26225 L101.09545,73.77175 C101.09545,71.50875 101.07545,70.25825 101.03595,70.01975 C100.99545,69.78175 100.74695,69.66225 100.28945,69.66225 L99.57345,69.66225 L99.42395,69.66225 C99.02545,69.66225 98.82695,69.58875 98.82695,69.44075 C98.82695,69.25025 99.03545,69.15475 99.45395,69.15475 C100.05095,69.13575 100.69745,69.02575 101.39445,68.82675 C102.09095,68.62775 102.57795,68.39925 102.85695,68.13975 C103.03595,67.98075 103.17545,67.90125 103.27495,67.90125 C103.41395,67.90125 103.48395,68.09075 103.48395,68.46825 L103.48395,69.90125 C104.51895,68.56825 105.85245,67.90125 107.48445,67.90125 C108.91745,67.90125 109.95195,68.42875 110.58945,69.48375 C110.94745,70.08075 111.12645,71.21475 111.12645,72.88625 L111.12645,79.69325 C111.12645,80.33075 111.15645,80.67825 111.21645,80.73825 C111.33545,80.85775 111.62345,80.91725 112.08145,80.91725 L112.40995,80.91725 L112.61895,80.91725 C112.81795,80.91725 112.91795,80.98225 112.91795,81.11225" id="Fill-50" fill="#FFFFFF"></path>
                    <path d="M63.1245,90.97795 L62.7665,90.97795 L62.2585,90.97795 C61.5425,91.01745 61.184,91.14795 61.184,91.36745 C61.184,91.40745 61.77,93.13795 62.9415,96.55895 C63.3965,95.56245 63.93,94.24795 64.5435,92.61345 C64.6255,92.39595 64.749,92.10845 64.914,91.75095 L64.9755,91.51245 C64.9755,91.15595 64.358,90.97795 63.1245,90.97795 M75.752,90.63595 C75.752,90.80545 75.4135,90.89945 74.7375,90.91795 C73.9805,90.93795 73.4785,91.18645 73.2295,91.66445 C72.9805,92.14145 72.5975,93.15645 72.0805,94.70945 C71.184,97.43595 70.3865,99.75395 69.6895,101.66395 C68.4965,104.92795 67.4125,108.08345 66.438,111.12845 C66.3565,111.38645 66.2545,111.51645 66.1325,111.51645 C66.03,111.51645 65.933,111.41695 65.8415,111.21945 C65.7495,111.02195 65.479,110.32945 65.0305,109.14145 C64.4765,107.58695 63.872,106.02245 63.219,104.44745 C62.704,103.21195 62.1995,101.93595 61.705,100.62045 C60.319,103.98495 58.9425,107.49745 57.576,111.15995 C57.4965,111.39795 57.396,111.51645 57.2755,111.51645 C57.1755,111.51645 57.055,111.34695 56.915,111.00945 C56.298,109.53595 54.009,103.43645 50.048,92.70895 C49.769,91.95245 49.5605,91.48045 49.421,91.29095 C49.2815,91.10195 48.934,90.99745 48.377,90.97795 C47.4215,90.93795 46.9445,90.79895 46.9445,90.55945 C46.9445,90.38045 47.1035,90.29095 47.4215,90.29095 C47.561,90.29095 47.68,90.30095 47.78,90.32095 C48.8345,90.38045 49.969,90.41045 51.183,90.41045 C51.422,90.41045 51.835,90.39095 52.422,90.35095 C53.009,90.31095 53.77,90.29095 54.706,90.29095 L55.034,90.29095 C55.3725,90.29095 55.542,90.38245 55.542,90.56545 C55.542,90.78895 55.235,90.90995 54.623,90.93095 C53.397,90.97095 52.7845,91.13395 52.7845,91.41845 C52.7845,91.97595 54.6135,97.16045 58.271,106.97395 C59.601,103.61195 60.5935,101.13445 61.249,99.54345 L58.3015,91.89795 C58.141,91.48145 57.9555,91.21345 57.746,91.09445 C57.536,90.97545 57.1505,90.90595 56.591,90.88595 C56.0305,90.86645 55.7505,90.77695 55.7505,90.61795 C55.7505,90.40045 55.9595,90.29095 56.3775,90.29095 C56.6955,90.29095 57.0835,90.31095 57.542,90.35095 C57.9995,90.39095 58.7955,90.41045 59.9305,90.41045 L62.199,90.41045 L65.4825,90.41045 C66.2185,90.41045 67.105,90.37845 68.14,90.31495 C68.259,90.29945 68.398,90.29095 68.5575,90.29095 C69.0355,90.29095 69.274,90.39595 69.274,90.60545 C69.274,90.79395 69.1045,90.88795 68.767,90.88795 L68.259,90.88795 C67.364,90.88795 66.687,91.00745 66.2295,91.24545 C66.03,91.34545 65.662,92.06145 65.1245,93.39345 C64.8835,93.94995 64.482,94.89495 63.919,96.22695 C63.802,96.52645 63.6265,96.97595 63.393,97.57445 C63.5315,97.97345 63.9675,99.07845 64.6995,100.89145 C65.6455,103.19595 66.424,105.17145 67.0345,106.81945 C68.1545,103.59695 69.474,99.78745 70.9935,95.39145 C71.7975,93.05095 72.2,91.75145 72.2,91.49095 C72.2,91.11145 71.851,90.92095 71.155,90.92095 C70.1795,90.92095 69.692,90.81095 69.692,90.59145 C69.692,90.39145 69.891,90.29095 70.2895,90.29095 C70.627,90.29095 70.896,90.30445 71.095,90.33045 C71.5325,90.38395 71.931,90.41045 72.289,90.41045 L74.6775,90.41045 C75.275,90.41045 75.603,90.43395 75.663,90.48045 C75.7225,90.52795 75.752,90.57945 75.752,90.63595" id="Fill-52" fill="#FFFFFF"></path>
                    <path d="M79.8716,92.351 C79.8716,93.2465 79.4236,93.6945 78.5286,93.6945 C78.1501,93.6945 77.8311,93.57 77.5731,93.321 C77.3141,93.072 77.1846,92.7685 77.1846,92.4105 C77.1846,91.4755 77.6326,91.007 78.5286,91.007 C79.4236,91.007 79.8716,91.455 79.8716,92.351 M82.1111,110.949 C82.1111,111.1285 81.9416,111.218 81.6036,111.218 C81.6231,111.218 81.3836,111.1975 80.8866,111.1585 C80.2901,111.1185 79.7916,111.098 79.3936,111.098 L76.2896,111.098 C76.1896,111.1775 76.0701,111.218 75.9311,111.218 C75.7121,111.218 75.6026,111.144 75.6026,110.9965 C75.6026,110.786 75.8016,110.6805 76.1996,110.6805 C76.9556,110.6605 77.3686,110.606 77.4386,110.516 C77.5081,110.427 77.5431,110.014 77.5431,109.2775 L77.5431,100.232 C77.5231,99.735 77.4986,99.441 77.4686,99.3515 C77.4386,99.2615 77.3141,99.2165 77.0951,99.2165 L76.2296,99.2165 L75.9311,99.2165 C75.7121,99.2165 75.6026,99.1475 75.6026,99.008 C75.6026,98.886 75.7691,98.817 76.1031,98.799 C77.4186,98.741 78.5481,98.431 79.4906,97.8685 L79.7851,97.6945 C79.9426,97.9925 80.0211,98.5385 80.0211,99.3325 L80.0211,99.63 L80.0211,100.792 L80.0211,108.9235 C80.0211,109.7175 80.0356,110.1845 80.0661,110.3235 C80.0956,110.4625 80.2001,110.5515 80.3796,110.591 C80.6776,110.671 81.1156,110.7105 81.6926,110.7105 C81.9711,110.7105 82.1111,110.79 82.1111,110.949" id="Fill-54" fill="#FFFFFF"></path>
                    <path d="M89.126,110.91935 C89.126,111.09785 88.9965,111.18785 88.738,111.18785 L88.38,111.18785 C88.3395,111.18785 87.8125,111.16785 86.7975,111.12835 L85.872,111.12835 C85.7125,111.12835 84.9165,111.14285 83.484,111.17335 C83.3645,111.18285 83.245,111.18785 83.1255,111.18785 C82.8265,111.20785 82.678,111.12385 82.678,110.93585 C82.678,110.80535 82.7865,110.74035 83.0065,110.74035 L83.782,110.74035 C84.3395,110.74035 84.618,110.62085 84.618,110.38235 C84.6375,110.26285 84.648,109.48635 84.648,108.05385 L84.648,92.85835 C84.648,92.20135 84.628,91.84335 84.5885,91.78385 C84.529,91.62435 84.369,91.54485 84.1105,91.54485 L83.872,91.54485 L83.0355,91.54485 C82.7575,91.54485 82.618,91.46035 82.618,91.29085 C82.618,91.14085 82.8665,91.05585 83.3645,91.03735 C84.32,90.97785 85.205,90.75885 86.0215,90.38035 L86.648,90.08185 L86.8865,89.99235 C87.0465,90.56985 87.1155,91.44535 87.096,92.61935 L87.096,94.73935 L87.096,109.36735 C87.096,109.96385 87.106,110.31735 87.1255,110.42735 C87.1455,110.53635 87.2155,110.61085 87.335,110.65085 C87.3545,110.67085 87.7225,110.69085 88.4395,110.71035 C88.897,110.71035 89.126,110.78085 89.126,110.91935" id="Fill-56" fill="#FFFFFF"></path>
                    <path d="M104.58885,110.9189 C104.58885,111.0589 104.22085,111.1284 103.48485,111.1284 C102.90735,111.1284 102.36985,111.1184 101.87235,111.0979 C100.85735,111.0589 100.16085,111.0384 99.78285,111.0384 C99.52385,111.0384 99.13035,111.0539 98.60385,111.0834 C98.07635,111.1139 97.68285,111.1284 97.42435,111.1284 C97.24535,111.1284 97.15585,111.0594 97.15585,110.9204 C97.15585,110.7619 97.34485,110.6824 97.72335,110.6824 C98.67835,110.6824 99.15585,110.5244 99.15585,110.2069 C99.15585,109.9294 97.48435,107.9279 94.14085,104.2024 L94.14085,110.2639 C94.16085,110.5619 94.44285,110.7004 94.98885,110.6804 L95.80685,110.6804 C96.06885,110.6804 96.20035,110.7509 96.20035,110.8914 C96.20035,111.0494 95.98135,111.1284 95.54335,111.1284 L95.39435,111.1284 L94.67785,111.1284 L92.73735,111.1284 L90.40935,111.1284 C89.93135,111.1284 89.69235,111.0439 89.69235,110.8749 C89.69235,110.7694 89.73735,110.7054 89.82685,110.6844 C89.91635,110.6629 90.25985,110.6424 90.85685,110.6209 C91.33435,110.6009 91.58285,110.4919 91.60285,110.2929 C91.64235,110.1539 91.66235,109.6374 91.66235,108.7424 L91.66235,94.1679 C91.66235,92.5979 91.65235,91.7834 91.63285,91.7234 C91.59285,91.5844 91.30435,91.5149 90.76685,91.5149 L90.46885,91.5149 L89.99085,91.5149 C89.77185,91.5149 89.66235,91.4404 89.66235,91.2909 C89.66235,91.1414 89.89085,91.0669 90.34935,91.0669 C91.30435,91.0474 92.29985,90.7589 93.33435,90.2014 C93.57385,90.0624 93.73235,89.9919 93.81185,89.9919 C94.03085,89.9919 94.14085,90.8184 94.14085,92.4704 L94.14085,103.4859 C97.36485,100.6174 98.97635,99.0349 98.97635,98.7384 C98.97635,98.6199 98.58835,98.5604 97.81235,98.5604 L97.63335,98.5604 L97.18535,98.5604 L96.88685,98.5604 C96.52885,98.5604 96.34935,98.4809 96.34935,98.3214 C96.34935,98.1419 96.65835,98.0529 97.27485,98.0529 L98.49885,98.0529 L99.60335,98.0529 L101.45435,98.0529 C102.17135,98.0529 102.58885,98.0629 102.70835,98.0824 C102.82785,98.1024 102.88735,98.1729 102.88735,98.2919 C102.88735,98.4319 102.41985,98.5119 101.48485,98.5314 C100.80785,98.5514 100.39935,98.6009 100.26085,98.6809 C100.02185,98.8209 99.79235,99.0009 99.57435,99.2199 L95.84235,102.8399 C98.60835,105.8719 100.56885,108.0964 101.72385,109.5124 C102.20085,110.0914 102.57835,110.4404 102.85785,110.5594 C103.07635,110.6594 103.56385,110.6999 104.32085,110.6794 C104.49935,110.6794 104.58885,110.7594 104.58885,110.9189" id="Fill-58" fill="#FFFFFF"></path>
                    <path d="M108.38035,92.351 C108.38035,93.2465 107.93285,93.6945 107.03735,93.6945 C106.65935,93.6945 106.34035,93.57 106.08185,93.321 C105.82335,93.072 105.69385,92.7685 105.69385,92.4105 C105.69385,91.4755 106.14135,91.007 107.03735,91.007 C107.93285,91.007 108.38035,91.455 108.38035,92.351 M110.61985,110.949 C110.61985,111.1285 110.45085,111.218 110.11235,111.218 C110.13185,111.218 109.89285,111.1975 109.39535,111.1585 C108.79885,111.1185 108.30085,111.098 107.90285,111.098 L104.79835,111.098 C104.69885,111.1775 104.57885,111.218 104.43985,111.218 C104.22085,111.218 104.11185,111.144 104.11185,110.9965 C104.11185,110.786 104.31035,110.6805 104.70885,110.6805 C105.46485,110.6605 105.87785,110.606 105.94735,110.516 C106.01685,110.427 106.05185,110.014 106.05185,109.2775 L106.05185,100.232 C106.03235,99.735 106.00735,99.441 105.97735,99.3515 C105.94735,99.2615 105.82335,99.2165 105.60385,99.2165 L104.73885,99.2165 L104.43985,99.2165 C104.22085,99.2165 104.11185,99.1475 104.11185,99.008 C104.11185,98.886 104.27835,98.817 104.61235,98.799 C105.92785,98.741 107.05685,98.431 107.99935,97.8685 L108.29385,97.6945 C108.45135,97.9925 108.52985,98.5385 108.52985,99.3325 L108.52985,99.63 L108.52985,100.792 L108.52985,108.9235 C108.52985,109.7175 108.54435,110.1845 108.57485,110.3235 C108.60435,110.4625 108.70885,110.5515 108.88835,110.591 C109.18685,110.671 109.62435,110.7105 110.20185,110.7105 C110.47985,110.7105 110.61985,110.79 110.61985,110.949" id="Fill-60" fill="#FFFFFF"></path>
                    <path d="M125.3672,110.96525 C125.3672,111.11425 125.2172,111.18775 124.9192,111.18775 L124.5612,111.18775 L123.0982,111.18775 L119.6352,111.18775 L119.4262,111.18775 C119.1677,111.18775 119.0382,111.11875 119.0382,110.97925 C119.0382,110.88075 119.0927,110.82125 119.2022,110.80075 C119.3117,110.78125 119.6947,110.76125 120.3517,110.74125 C120.7297,110.72175 120.9487,110.66725 121.0082,110.57775 C121.0682,110.48825 121.0977,110.16525 121.0977,109.60975 L121.0977,103.89175 C121.0977,101.72675 121.0182,100.43625 120.8587,100.01925 C120.5207,99.12625 119.8437,98.67975 118.8292,98.67975 C117.8337,98.67975 116.9977,99.11675 116.3212,99.98975 C116.1222,100.24775 116.0232,100.60525 116.0232,101.06225 L116.0232,110.35375 C116.0232,110.59225 116.2352,110.72175 116.6602,110.74125 L117.5707,110.77125 C117.7727,110.77125 117.8737,110.84025 117.8737,110.97925 C117.8737,111.11875 117.7542,111.18775 117.5157,111.18775 L117.0382,111.18775 L114.9482,111.18775 L113.5302,111.18775 L112.2612,111.18775 L112.0822,111.18775 C111.7837,111.18775 111.6342,111.12725 111.6342,111.00475 C111.6342,110.88325 111.8137,110.80525 112.1717,110.77025 L112.9187,110.77025 C113.2167,110.77025 113.3957,110.70075 113.4557,110.56125 L113.5447,110.11525 L113.5447,103.62425 C113.5447,101.36175 113.5247,100.11075 113.4852,99.87225 C113.4447,99.63525 113.1962,99.51575 112.7392,99.51575 L112.0227,99.51575 L111.8732,99.51575 C111.4752,99.51575 111.2762,99.44175 111.2762,99.29325 C111.2762,99.10325 111.4847,99.00825 111.9032,99.00825 C112.5002,98.98825 113.1467,98.87875 113.8437,98.67975 C114.5402,98.48075 115.0272,98.25175 115.3062,97.99325 C115.4852,97.83375 115.6247,97.75375 115.7242,97.75375 C115.8632,97.75375 115.9332,97.94325 115.9332,98.32125 L115.9332,99.75425 C116.9682,98.42125 118.3017,97.75375 119.9337,97.75375 C121.3667,97.75375 122.4012,98.28175 123.0387,99.33625 C123.3967,99.93375 123.5757,101.06775 123.5757,102.73975 L123.5757,109.54625 C123.5757,110.18375 123.6057,110.53125 123.6657,110.59125 C123.7847,110.71025 124.0727,110.77025 124.5307,110.77025 L124.8592,110.77025 L125.0682,110.77025 C125.2677,110.77025 125.3672,110.83525 125.3672,110.96525" id="Fill-62" fill="#FFFFFF"></path>
                    <path d="M135.5166,107.3276 C135.5166,108.4841 135.0966,109.4666 134.2571,110.2751 C133.4171,111.0826 132.4141,111.4861 131.2481,111.4861 C130.5756,111.4861 129.7556,111.2476 128.7876,110.7706 C128.5296,110.6311 128.3026,110.5611 128.1056,110.5611 C127.8286,110.5611 127.6211,110.7506 127.4831,111.1286 C127.4031,111.3671 127.2951,111.4861 127.1566,111.4861 C127.0181,111.4861 126.9491,111.4071 126.9491,111.2476 L126.9491,110.8896 L126.9491,109.1286 L126.9491,108.4116 L126.9491,107.5756 L126.9491,107.2476 C126.9491,107.0286 127.0186,106.9196 127.1581,106.9196 C127.3171,106.9196 127.4066,107.0296 127.4266,107.2501 C127.5461,108.1721 127.8041,108.8941 128.2031,109.4151 C128.9991,110.4581 130.0641,110.9791 131.3976,110.9791 C132.1136,110.9791 132.6911,110.7701 133.1291,110.3506 C133.5661,109.9316 133.7856,109.3736 133.7856,108.6751 C133.7856,107.8976 133.5366,107.2791 133.0396,106.8201 C132.7601,106.5606 132.5061,106.3771 132.2776,106.2661 C132.0486,106.1566 131.3776,105.8926 130.2626,105.4736 C128.0536,104.6356 126.9491,103.3791 126.9491,101.7036 C126.9491,100.5871 127.3241,99.6496 128.0741,98.8911 C128.8241,98.1331 129.7526,97.7541 130.8586,97.7541 C131.2531,97.7541 131.8451,97.8741 132.6351,98.1121 C132.8326,98.1721 133.0101,98.2016 133.1686,98.2016 C133.5831,98.2016 133.8396,98.0036 133.9386,97.6051 C133.9976,97.4061 134.0871,97.3066 134.2056,97.3066 C134.3431,97.3066 134.4126,97.3861 134.4126,97.5456 L134.4126,97.7241 L134.4126,98.9781 C134.3921,99.4561 134.4421,100.2221 134.5621,101.2766 L134.5621,101.3366 C134.5621,101.4961 134.4821,101.5751 134.3226,101.5751 C134.2036,101.5751 134.0541,101.2746 133.8751,100.6716 C133.6556,99.9486 133.2726,99.3666 132.7256,98.9241 C132.1781,98.4831 131.5466,98.2616 130.8301,98.2616 C130.1531,98.2616 129.5956,98.4711 129.1581,98.8896 C128.7201,99.3091 128.5016,99.8381 128.5016,100.4761 C128.5016,101.4731 129.1681,102.2316 130.5021,102.7496 C132.5711,103.5676 133.8846,104.2461 134.4421,104.7846 C135.1586,105.4831 135.5166,106.3306 135.5166,107.3276" id="Fill-64" fill="#FFFFFF"></path>
                    <path d="M58.6465,124.1591 C58.6465,123.0496 58.4025,122.1476 57.915,121.4536 C57.427,120.7601 56.7955,120.4131 56.0195,120.4131 C55.223,120.4131 54.5665,120.6761 54.049,121.2011 C53.531,121.7266 53.2725,122.3856 53.2725,123.1786 C53.2725,124.6456 54.3475,126.2411 56.497,127.9656 C57.93,127.1931 58.6465,125.9241 58.6465,124.1591 M61.184,138.2351 C59.966,136.1266 57.6405,133.1606 54.2065,129.3391 C53.228,130.0756 52.5345,130.8316 52.1255,131.6076 C51.716,132.3841 51.5115,133.3196 51.5115,134.4141 C51.5115,136.1061 51.9855,137.5191 52.9335,138.6531 C53.8825,139.7881 55.065,140.3551 56.4825,140.3551 C58.2595,140.3551 59.8265,139.6486 61.184,138.2351 M69.125,128.5331 C69.125,128.6521 69.0605,128.7226 68.931,128.7416 C68.801,128.7621 68.3385,128.7921 67.5425,128.8316 C66.926,128.8521 66.528,128.9211 66.3485,129.0401 C66.169,129.1596 66.04,129.4666 65.9605,129.9626 C65.5025,132.4446 64.6365,134.6776 63.3635,136.6631 C63.761,137.2981 64.05,137.7946 64.2295,138.1511 C64.7065,139.1046 65.1695,139.7001 65.617,139.9381 C66.065,140.1766 66.9655,140.3251 68.319,140.3846 C68.737,140.4056 68.946,140.5211 68.946,140.7306 C68.946,140.8986 68.806,140.9821 68.528,140.9821 C68.03,140.9821 67.115,140.9516 65.7815,140.8921 C65.3235,140.8731 65.015,140.8626 64.8555,140.8626 C64.199,140.8626 63.4825,140.9021 62.7065,140.9821 C62.627,140.7631 62.2885,140.1261 61.6915,139.0711 L61.5425,138.8326 C59.9495,140.5241 57.87,141.3701 55.303,141.3701 C53.3325,141.3701 51.7305,140.8426 50.4965,139.7881 C49.262,138.7326 48.6455,137.3596 48.6455,135.6681 C48.6455,132.8421 50.3965,130.6131 53.9,128.9811 C53.8595,128.9211 53.7305,128.7821 53.5115,128.5631 C52.4965,127.5081 51.8645,126.7671 51.616,126.3386 C51.367,125.9111 51.243,125.3491 51.243,124.6521 C51.243,123.2391 51.7055,122.0951 52.631,121.2186 C53.5565,120.3431 54.7555,119.9051 56.2285,119.9051 C57.6415,119.9051 58.781,120.2691 59.6465,120.9951 C60.512,121.7221 60.945,122.6716 60.945,123.8461 C60.945,125.7371 59.562,127.2396 56.7955,128.3541 C56.915,128.4931 57.4125,129.0701 58.2885,130.0856 C60.0395,132.0956 61.582,134.0656 62.9155,135.9966 C64.3285,133.7276 65.035,131.6181 65.035,129.6676 C65.035,129.2301 64.9455,128.9761 64.7665,128.9061 C64.5875,128.8361 63.95,128.8021 62.8555,128.8021 C62.2585,128.8021 61.96,128.7021 61.96,128.5031 C61.96,128.3441 62.129,128.2646 62.468,128.2646 L67.304,128.2646 C68.219,128.2646 68.717,128.2746 68.7965,128.2946 C69.0155,128.3541 69.125,128.4336 69.125,128.5331" id="Fill-66" fill="#FFFFFF"></path>
                    <path d="M93.15575,134.32465 C93.15575,134.28515 93.13575,134.55365 93.09625,135.13065 C93.01675,136.28515 92.97725,137.39965 92.97725,138.47465 C92.97725,138.59365 92.99675,138.83715 93.03675,139.20615 C93.07625,139.57415 93.09625,140.01665 93.09625,140.53415 L93.09625,140.80265 C93.09625,141.06165 93.01675,141.19065 92.85725,141.19065 C92.69775,141.19065 92.55925,141.04165 92.43925,140.74315 C92.16075,140.08615 91.88175,139.65865 91.60375,139.45965 C90.17025,140.71265 88.44925,141.33965 86.43875,141.33965 C83.51375,141.33965 81.08975,140.32015 79.16975,138.28015 C77.24925,136.24015 76.28925,133.66815 76.28925,130.56365 C76.28925,127.43915 77.16975,124.88615 78.93075,122.90565 C80.69225,120.92565 82.96575,119.93565 85.75225,119.93565 C86.76775,119.93565 87.57825,120.02065 88.18575,120.18915 C88.79225,120.35865 89.54325,120.70215 90.43925,121.21865 C90.87675,121.47815 91.20525,121.60665 91.42475,121.60665 C91.60375,121.60665 91.77225,121.44815 91.93175,121.12915 C92.19025,120.57265 92.39925,120.29365 92.55925,120.29365 C92.71775,120.29365 92.79775,120.37365 92.79775,120.53215 C92.79775,120.61215 92.77775,120.74115 92.73825,120.92015 C92.51875,121.87615 92.40975,123.66715 92.40975,126.29365 C92.40975,126.67215 92.37925,126.89115 92.31975,126.95115 C92.26025,127.01065 92.18075,127.04015 92.08125,127.04015 C91.88175,127.04015 91.75275,126.85165 91.69275,126.47315 C91.43425,124.88115 91.06625,123.69665 90.58875,122.92065 C89.61325,121.32865 88.08075,120.53215 85.99125,120.53215 C84.37925,120.53215 83.10525,121.06965 82.16975,122.14465 C80.47875,124.07515 79.63225,126.90165 79.63225,130.62315 C79.63225,133.94665 80.32925,136.52365 81.72225,138.35465 C82.93625,139.94715 84.54775,140.74315 86.55825,140.74315 C87.59275,140.74315 88.53875,140.48915 89.39475,139.98165 C90.24975,139.47415 90.90675,138.78315 91.36475,137.90715 C91.88175,136.89215 92.25025,135.78765 92.46925,134.59315 C92.54875,134.11565 92.67875,133.87665 92.85725,133.87665 C93.05625,133.87665 93.15575,134.02615 93.15575,134.32465" id="Fill-68" fill="#FFFFFF"></path>
                    <path d="M105.187,126.2109 C105.187,124.0214 104.848,122.3204 104.172,121.1064 C103.6745,120.2104 102.838,119.7629 101.664,119.7629 C100.5495,119.7629 99.6785,120.3349 99.0515,121.4789 C98.425,122.6239 98.112,124.2109 98.112,126.2409 C98.112,128.2514 98.4445,129.8184 99.1115,130.9429 C99.7785,132.0674 100.709,132.6294 101.903,132.6294 C102.818,132.6294 103.495,132.2819 103.933,131.5844 C104.769,130.2709 105.187,128.4799 105.187,126.2109 M107.9035,126.2409 C107.9035,128.1714 107.316,129.7889 106.142,131.0919 C104.9675,132.3959 103.505,133.0474 101.7535,133.0474 C99.9425,133.0474 98.4295,132.3959 97.216,131.0919 C96.0015,129.7889 95.395,128.1714 95.395,126.2409 C95.395,124.2509 95.987,122.5984 97.171,121.2849 C98.355,119.9714 99.833,119.3149 101.6045,119.3149 C103.3955,119.3149 104.8925,119.9769 106.097,121.3004 C107.3015,122.6239 107.9035,124.2704 107.9035,126.2409" id="Fill-70" fill="#FFFFFF"></path>
                    <path d="M103.64695,139.6357 C103.64695,140.0647 103.49695,140.4297 103.19845,140.7317 C102.89895,141.0337 102.53695,141.1842 102.11295,141.1842 C101.66895,141.1842 101.29745,141.0337 100.99845,140.7317 C100.69895,140.4297 100.54995,140.0552 100.54995,139.6072 C100.54995,139.1792 100.69895,138.8137 100.99845,138.5117 C101.29745,138.2092 101.66895,138.0592 102.11295,138.0592 C102.53695,138.0592 102.89895,138.2092 103.19845,138.5117 C103.49695,138.8137 103.64695,139.1882 103.64695,139.6357" id="Fill-72" fill="#FFFFFF"></path>
                </g>
            </g>
        </g>
    </g>
</svg>